{
  "$id": "MPSectionBodyValidationResult.json",
  "type": "object",
  "$mash": {
    "sources": [{ "$ref": "abstract/MPValidationResult.json#" }],
    "with": {
      "properties": {
        "objectType": {
          "type": "string",
          "enum": ["MPSectionBodyValidationResult"]
        },
        "type": {
          "type": "string",
          "enum": ["section-body-has-content"]
        },
        "data": {
          "type": "object",
          "properties": {
            "sectionCategory": {
              "type": "string"
            }
          }
        }
      },
      "required": ["data"]
    }
  }
}
